…
``` r
devtools::install_github("stemangiola/tidyseurat")
```

## Create `tidyseurat`

This is a seurat object but it is evaluated as tibble. So it is fully
compatible both with Seurat and tidyverse APIs.

``` r
pbmc_small_tidy = tidyseurat::pbmc_small %>% tidy()
pbmc_small_tidy
```

    ## # A tibble: 80 x 15
    ##    cell  orig.ident nCount_RNA nFeature_RNA RNA_snn_res.0.8 letter.idents groups
    ##    <chr> <fct>           <dbl>        <int> <fct>           <fct>         <chr> 
    ##  1 ATGC… SeuratPro…         70           47 0               A             g2    
    ##  2 CATG… SeuratPro…         85           52 0               A             g1    
    ##  3 GAAC… SeuratPro…         87           50 1               B             g2    
    ##  4 TGAC… SeuratPro…        127           56 0               A             g2    
    ##  5 AGTC… SeuratPro…        173           53 0               A             g2    
    ##  6 TCTG… SeuratPro…         70           48 0               A             g1    
    ##  7 TGGT… SeuratPro…         64           36 0               A             g1    
    ##  8 GCAG… SeuratPro…         72           45 0               A             g1    
    ##  9 GATA… SeuratPro…         52           36 0               A             g1    
    ## 10 AATG… SeuratPro…        100           41 0               A             g1    
    ## # … with 70 more rows, and 8 more variables: RNA_snn_res.1 <fct>, PC_1 <dbl>,
    ## #   PC_2 <dbl>, PC_3 <dbl>, PC_4 <dbl>, PC_5 <dbl>, tSNE_1 <dbl>, tSNE_2 <dbl>
…
Also you can treat the object as Seurat object and proceed with data
processing.

``` r
pbmc_small_pca = 
  pbmc_small_tidy %>%
  SCTransform(verbose = FALSE) %>% 
  FindVariableFeatures(verbose = FALSE) %>% 
  RunPCA(verbose = FALSE)

pbmc_small_pca
```

    ## # A tibble: 80 x 17
    ##    cell  orig.ident nCount_RNA nFeature_RNA RNA_snn_res.0.8 letter.idents groups
    ##    <chr> <fct>           <dbl>        <int> <fct>           <fct>         <chr> 
    ##  1 ATGC… SeuratPro…         70           47 0               A             g2    
    ##  2 CATG… SeuratPro…         85           52 0               A             g1    
    ##  3 GAAC… SeuratPro…         87           50 1               B             g2    
    ##  4 TGAC… SeuratPro…        127           56 0               A             g2    
    ##  5 AGTC… SeuratPro…        173           53 0               A             g2    
    ##  6 TCTG… SeuratPro…         70           48 0               A             g1    
    ##  7 TGGT… SeuratPro…         64           36 0               A             g1    
    ##  8 GCAG… SeuratPro…         72           45 0               A             g1    
    ##  9 GATA… SeuratPro…         52           36 0               A             g1    
    ## 10 AATG… SeuratPro…        100           41 0               A             g1    
    ## # … with 70 more rows, and 10 more variables: RNA_snn_res.1 <fct>,
    ## #   nCount_SCT <dbl>, nFeature_SCT <int>, PC_1 <dbl>, PC_2 <dbl>, PC_3 <dbl>,
    ## #   PC_4 <dbl>, PC_5 <dbl>, tSNE_1 <dbl>, tSNE_2 <dbl>
…
## Identify clusters and reduce dimensions

We proceed with cluster identification

``` r
pbmc_small_cluster = 
  pbmc_small_pca %>%
  FindNeighbors(verbose=FALSE) %>% 
  FindClusters(method = "igraph", verbose=FALSE )

pbmc_small_cluster
```

    ## # A tibble: 80 x 19
    ##    cell  orig.ident nCount_RNA nFeature_RNA RNA_snn_res.0.8 letter.idents groups
    ##    <chr> <fct>           <dbl>        <int> <fct>           <fct>         <chr> 
    ##  1 ATGC… SeuratPro…         70           47 0               A             g2    
    ##  2 CATG… SeuratPro…         85           52 0               A             g1    
    ##  3 GAAC… SeuratPro…         87           50 1               B             g2    
    ##  4 TGAC… SeuratPro…        127           56 0               A             g2    
    ##  5 AGTC… SeuratPro…        173           53 0               A             g2    
    ##  6 TCTG… SeuratPro…         70           48 0               A             g1    
    ##  7 TGGT… SeuratPro…         64           36 0               A             g1    
    ##  8 GCAG… SeuratPro…         72           45 0               A             g1    
    ##  9 GATA… SeuratPro…         52           36 0               A             g1    
    ## 10 AATG… SeuratPro…        100           41 0               A             g1    
    ## # … with 70 more rows, and 12 more variables: RNA_snn_res.1 <fct>,
    ## #   nCount_SCT <dbl>, nFeature_SCT <int>, SCT_snn_res.0.8 <fct>,
    ## #   seurat_clusters <fct>, PC_1 <dbl>, PC_2 <dbl>, PC_3 <dbl>, PC_4 <dbl>,
    ## #   PC_5 <dbl>, tSNE_1 <dbl>, tSNE_2 <dbl>
…
``` r
pbmc_small_cell_type =
  pbmc_small_UMAP %>%
  left_join(cell_type_df, by="cell")

pbmc_small_cell_type %>%
  tidyseurat::select(cell, first.labels, everything())
```

    ## # A tibble: 80 x 23
    ##    cell  first.labels orig.ident nCount_RNA nFeature_RNA RNA_snn_res.0.8
    ##    <chr> <chr>        <fct>           <dbl>        <int> <fct>          
    ##  1 ATGC… CD4+ T-cells SeuratPro…         70           47 0              
    ##  2 CATG… CD8+ T-cells SeuratPro…         85           52 0              
    ##  3 GAAC… CD8+ T-cells SeuratPro…         87           50 1              
    ##  4 TGAC… CD4+ T-cells SeuratPro…        127           56 0              
    ##  5 AGTC… CD4+ T-cells SeuratPro…        173           53 0              
    ##  6 TCTG… CD4+ T-cells SeuratPro…         70           48 0              
    ##  7 TGGT… CD4+ T-cells SeuratPro…         64           36 0              
    ##  8 GCAG… CD4+ T-cells SeuratPro…         72           45 0              
    ##  9 GATA… CD4+ T-cells SeuratPro…         52           36 0              
    ## 10 AATG… CD4+ T-cells SeuratPro…        100           41 0              
    ## # … with 70 more rows, and 17 more variables: letter.idents <fct>,
    ## #   groups <chr>, RNA_snn_res.1 <fct>, nCount_SCT <dbl>, nFeature_SCT <int>,
    ## #   SCT_snn_res.0.8 <fct>, seurat_clusters <fct>, PC_1 <dbl>, PC_2 <dbl>,
    ## #   PC_3 <dbl>, PC_4 <dbl>, PC_5 <dbl>, tSNE_1 <dbl>, tSNE_2 <dbl>,
    ## #   UMAP_1 <dbl>, UMAP_2 <dbl>, UMAP_3 <dbl>
…
