Arrange rows by column values — arrange • tidyseurat
…
# Learn more in ?dplyr_tidy_eval
`%>%` = magrittr::`%>%`
pbmc_small %>% tidy %>% group_by(groups)
#> tidyseurat says: A data frame is returned for independent data analysis.
#> # A tibble: 80 x 16
#> # Groups:   groups [2]
#>    cell  orig.ident nCount_RNA nFeature_RNA RNA_snn_res.0.8 letter.idents groups
#>    <chr> <fct>           <dbl>        <int> <fct>           <fct>         <chr> 
#>  1 ATGC… SeuratPro…         70           47 0               A             g2    
#>  2 CATG… SeuratPro…         85           52 0               A             g1    
#>  3 GAAC… SeuratPro…         87           50 1               B             g2    
#>  4 TGAC… SeuratPro…        127           56 0               A             g2    
#>  5 AGTC… SeuratPro…        173           53 0               A             g2    
#>  6 TCTG… SeuratPro…         70           48 0               A             g1    
#>  7 TGGT… SeuratPro…         64           36 0               A             g1    
#>  8 GCAG… SeuratPro…         72           45 0               A             g1    
#>  9 GATA… SeuratPro…         52           36 0               A             g1    
#> 10 AATG… SeuratPro…        100           41 0               A             g1    
#> # … with 70 more rows, and 9 more variables: RNA_snn_res.1 <fct>, file <chr>,
#> #   PC_1 <dbl>, PC_2 <dbl>, PC_3 <dbl>, PC_4 <dbl>, PC_5 <dbl>, tSNE_1 <dbl>,
#> #   tSNE_2 <dbl>
…
`%>%` = magrittr::`%>%`

tt = pbmc_small %>% tidy
tt %>% full_join(tibble::tibble(groups = "g1", other=1:4))
#> Joining, by = "groups"
#> tidyseurat says: This operation lead to duplicated cell names. A data frame is returned for independent data analysis.
#> # A tibble: 212 x 17
#>    cell  orig.ident nCount_RNA nFeature_RNA RNA_snn_res.0.8 letter.idents groups
#>    <chr> <fct>           <dbl>        <int> <fct>           <fct>         <chr> 
#>  1 ATGC… SeuratPro…         70           47 0               A             g2    
#>  2 CATG… SeuratPro…         85           52 0               A             g1    
#>  3 CATG… SeuratPro…         85           52 0               A             g1    
#>  4 CATG… SeuratPro…         85           52 0               A             g1    
#>  5 CATG… SeuratPro…         85           52 0               A             g1    
#>  6 GAAC… SeuratPro…         87           50 1               B             g2    
#>  7 TGAC… SeuratPro…        127           56 0               A             g2    
#>  8 AGTC… SeuratPro…        173           53 0               A             g2    
#>  9 TCTG… SeuratPro…         70           48 0               A             g1    
#> 10 TCTG… SeuratPro…         70           48 0               A             g1    
#> # … with 202 more rows, and 10 more variables: RNA_snn_res.1 <fct>, file <chr>,
#> #   PC_1 <dbl>, PC_2 <dbl>, PC_3 <dbl>, PC_4 <dbl>, PC_5 <dbl>, tSNE_1 <dbl>,
#> #   tSNE_2 <dbl>, other <int>
…
