Mutating joins — full_join • tidyseurat
…
    See also

    Other joins:
cross_join(),
filter-joins,
nest_join()

    Examples

data(pbmc_small)
tt <- pbmc_small
tt |> full_join(tibble::tibble(groups="g1", other=1:4))
#> Joining with `by = join_by(groups)`
#> tidyseurat says: This operation lead to duplicated cell names. A data frame is returned for independent data analysis.
#> # A tibble: 212 × 30
#>    .cell orig.ident nCount_RNA nFeature_RNA RNA_snn_res.0.8 letter.idents groups
#>    <chr> <fct>           <dbl>        <int> <fct>           <fct>         <chr> 
#>  1 ATGC… SeuratPro…         70           47 0               A             g2    
#>  2 CATG… SeuratPro…         85           52 0               A             g1    
#>  3 CATG… SeuratPro…         85           52 0               A             g1    
#>  4 CATG… SeuratPro…         85           52 0               A             g1    
#>  5 CATG… SeuratPro…         85           52 0               A             g1    
#>  6 GAAC… SeuratPro…         87           50 1               B             g2    
#>  7 TGAC… SeuratPro…        127           56 0               A             g2    
#>  8 AGTC… SeuratPro…        173           53 0               A             g2    
#>  9 TCTG… SeuratPro…         70           48 0               A             g1    
#> 10 TCTG… SeuratPro…         70           48 0               A             g1    
#> # ℹ 202 more rows
#> # ℹ 23 more variables: RNA_snn_res.1 <fct>, PC_1 <dbl>, PC_2 <dbl>, PC_3 <dbl>,
#> #   PC_4 <dbl>, PC_5 <dbl>, PC_6 <dbl>, PC_7 <dbl>, PC_8 <dbl>, PC_9 <dbl>,
#> #   PC_10 <dbl>, PC_11 <dbl>, PC_12 <dbl>, PC_13 <dbl>, PC_14 <dbl>,
#> #   PC_15 <dbl>, PC_16 <dbl>, PC_17 <dbl>, PC_18 <dbl>, PC_19 <dbl>,
#> #   tSNE_1 <dbl>, tSNE_2 <dbl>, other <int>
…
