Separate a character column into multiple columns with a regular expression or numeric locations — separate • tidyseurat
…
    Value

    A tidyseurat objector a tibble depending on input

    See also

    [unite()], the complement, [extract()] which uses regular
  expression capturing groups.

    Examples

 un = pbmc_small %>% tidy %>% unite("new_col", c(orig.ident, groups)) 
 un %>% separate(col = new_col, into= c("orig.ident", "groups"))

#> # A tibble: 80 x 16
#>    cell  orig.ident groups nCount_RNA nFeature_RNA RNA_snn_res.0.8 letter.idents
#>    <chr> <chr>      <chr>       <dbl>        <int> <fct>           <fct>        
#>  1 ATGC… SeuratPro… g2             70           47 0               A            
#>  2 CATG… SeuratPro… g1             85           52 0               A            
#>  3 GAAC… SeuratPro… g2             87           50 1               B            
#>  4 TGAC… SeuratPro… g2            127           56 0               A            
#>  5 AGTC… SeuratPro… g2            173           53 0               A            
#>  6 TCTG… SeuratPro… g1             70           48 0               A            
#>  7 TGGT… SeuratPro… g1             64           36 0               A            
#>  8 GCAG… SeuratPro… g1             72           45 0               A            
#>  9 GATA… SeuratPro… g1             52           36 0               A            
#> 10 AATG… SeuratPro… g1            100           41 0               A            
#> # … with 70 more rows, and 9 more variables: RNA_snn_res.1 <fct>, file <chr>,
#> #   PC_1 <dbl>, PC_2 <dbl>, PC_3 <dbl>, PC_4 <dbl>, PC_5 <dbl>, tSNE_1 <dbl>,
#> #   tSNE_2 <dbl>
…
