Subset rows using their positions — slice • tidyseurat
…
# if using replacement, and duplicate cells are returned, a tibble will be
# returned because duplicate cells cannot exist in Seurat objects
pbmc_small |> slice_sample(n=1, replace=TRUE) # returns Seurat
#> # A Seurat-tibble abstraction: 1 × 15
#> # Features=230 | Cells=1 | Active assay=RNA | Assays=RNA
#>   .cell  orig.ident nCount_RNA nFeature_RNA RNA_snn_res.0.8 letter.idents groups
#>   <chr>  <fct>           <dbl>        <int> <fct>           <fct>         <chr> 
#> 1 GATAG… SeuratPro…        328           72 1               B             g1    
#> # ℹ 8 more variables: RNA_snn_res.1 <fct>, PC_1 <dbl>, PC_2 <dbl>, PC_3 <dbl>,
#> #   PC_4 <dbl>, PC_5 <dbl>, tSNE_1 <dbl>, tSNE_2 <dbl>
pbmc_small |> slice_sample(n=100, replace=TRUE) # returns tibble
#> tidyseurat says: When sampling with replacement a data frame is returned for independent data analysis.
#> # A tibble: 100 × 29
#>    .cell orig.ident nCount_RNA nFeature_RNA RNA_snn_res.0.8 letter.idents groups
#>    <chr> <fct>           <dbl>        <int> <fct>           <fct>         <chr> 
#>  1 ATGC… SeuratPro…         70           47 0               A             g2    
#>  2 ATGC… SeuratPro…         70           47 0               A             g2    
#>  3 ATGC… SeuratPro…         70           47 0               A             g2    
#>  4 CATG… SeuratPro…         85           52 0               A             g1    
#>  5 TCTG… SeuratPro…         70           48 0               A             g1    
#>  6 TGGT… SeuratPro…         64           36 0               A             g1    
#>  7 AATG… SeuratPro…        100           41 0               A             g1    
#>  8 GGGT… SeuratPro…        101           41 0               A             g2    
#>  9 GGGT… SeuratPro…        101           41 0               A             g2    
#> 10 CATG… SeuratPro…         51           26 0               A             g2    
#> # ℹ 90 more rows
#> # ℹ 22 more variables: RNA_snn_res.1 <fct>, PC_1 <dbl>, PC_2 <dbl>, PC_3 <dbl>,
#> #   PC_4 <dbl>, PC_5 <dbl>, PC_6 <dbl>, PC_7 <dbl>, PC_8 <dbl>, PC_9 <dbl>,
#> #   PC_10 <dbl>, PC_11 <dbl>, PC_12 <dbl>, PC_13 <dbl>, PC_14 <dbl>,
#> #   PC_15 <dbl>, PC_16 <dbl>, PC_17 <dbl>, PC_18 <dbl>, PC_19 <dbl>,
#> #   tSNE_1 <dbl>, tSNE_2 <dbl>
…
