Coerce lists, matrices, and more to data frames — as_tibble • tidyseurat
…
`glimpse` is an S3 generic with a customised method for `tbl`s and
`data.frames`, and a default method that calls [str()].

    See also

    [tibble()] constructs a tibble from individual columns. [enframe()]
  converts a named vector to a tibble with a column of names and column of
  values. Name repair is implemented using [vctrs::vec_as_names()].

    Examples

pbmc_small %>% tidy %>% as_tibble()

#> # A tibble: 80 x 30
#>    cell  orig.ident nCount_RNA nFeature_RNA RNA_snn_res.0.8 letter.idents groups
#>    <chr> <fct>           <dbl>        <int> <fct>           <fct>         <chr> 
#>  1 ATGC… SeuratPro…         70           47 0               A             g2    
#>  2 CATG… SeuratPro…         85           52 0               A             g1    
#>  3 GAAC… SeuratPro…         87           50 1               B             g2    
#>  4 TGAC… SeuratPro…        127           56 0               A             g2    
#>  5 AGTC… SeuratPro…        173           53 0               A             g2    
#>  6 TCTG… SeuratPro…         70           48 0               A             g1    
#>  7 TGGT… SeuratPro…         64           36 0               A             g1    
#>  8 GCAG… SeuratPro…         72           45 0               A             g1    
#>  9 GATA… SeuratPro…         52           36 0               A             g1    
#> 10 AATG… SeuratPro…        100           41 0               A             g1    
#> # … with 70 more rows, and 23 more variables: RNA_snn_res.1 <fct>, file <chr>,
#> #   PC_1 <dbl>, PC_2 <dbl>, PC_3 <dbl>, PC_4 <dbl>, PC_5 <dbl>, PC_6 <dbl>,
#> #   PC_7 <dbl>, PC_8 <dbl>, PC_9 <dbl>, PC_10 <dbl>, PC_11 <dbl>, PC_12 <dbl>,
#> #   PC_13 <dbl>, PC_14 <dbl>, PC_15 <dbl>, PC_16 <dbl>, PC_17 <dbl>,
#> #   PC_18 <dbl>, PC_19 <dbl>, tSNE_1 <dbl>, tSNE_2 <dbl>
…
