unnest — unnest • tidyseurat
…
      names_repair
      See tidyr::unnest

    Value

    A tidyseurat objector a tibble depending on input

A tidyseurat objector a tibble depending on input

    Examples

library(dplyr)
pbmc_small %>% tidy %>% nest(data = -groups) %>% unnest(data) 

#> # A tibble: 80 x 8
#>    cell  orig.ident nCount_RNA nFeature_RNA RNA_snn_res.0.8 letter.idents
#>    <chr> <chr>           <dbl>        <int> <chr>           <chr>        
#>  1 ATGC… SeuratPro…         70           47 0               A            
#>  2 GAAC… SeuratPro…         87           50 1               B            
#>  3 TGAC… SeuratPro…        127           56 0               A            
#>  4 AGTC… SeuratPro…        173           53 0               A            
#>  5 AGGT… SeuratPro…         62           31 0               A            
#>  6 GGGT… SeuratPro…        101           41 0               A            
#>  7 CATG… SeuratPro…         51           26 0               A            
#>  8 TACG… SeuratPro…         99           45 0               A            
#>  9 GTAA… SeuratPro…         67           33 0               A            
#> 10 TACA… SeuratPro…        109           41 0               A            
#> # … with 70 more rows, and 2 more variables: RNA_snn_res.1 <chr>, groups <chr>

library(dplyr)
pbmc_small %>% tidy %>% nest(data = -groups) %>% unnest(data) 

#> # A tibble: 80 x 8
#>    cell  orig.ident nCount_RNA nFeature_RNA RNA_snn_res.0.8 letter.idents
#>    <chr> <chr>           <dbl>        <int> <chr>           <chr>        
#>  1 ATGC… SeuratPro…         70           47 0               A            
#>  2 GAAC… SeuratPro…         87           50 1               B            
#>  3 TGAC… SeuratPro…        127           56 0               A            
#>  4 AGTC… SeuratPro…        173           53 0               A            
#>  5 AGGT… SeuratPro…         62           31 0               A            
#>  6 GGGT… SeuratPro…        101           41 0               A            
#>  7 CATG… SeuratPro…         51           26 0               A            
#>  8 TACG… SeuratPro…         99           45 0               A            
#>  9 GTAA… SeuratPro…         67           33 0               A            
#> 10 TACA… SeuratPro…        109           41 0               A            
#> # … with 70 more rows, and 2 more variables: RNA_snn_res.1 <chr>, groups <chr>
…
