Overview of the tidyseurat package • tidyseurat
…
Aggregating cells

Sometimes, it is necessary to aggregate the gene-transcript abundance from a group of cells into a single value. For example, when comparing groups of cells across different samples with fixed-effect models.

In tidyseurat, cell aggregation can be achieved using the aggregate_cells function.

pbmc_small %>%
  aggregate_cells(groups, assays = "RNA")

## # A tibble: 460 × 6
##    .feature  .sample    RNA groups .aggregated_cells orig.ident   
##    <chr>     <chr>    <dbl> <chr>              <int> <fct>        
##  1 MS4A1     g2       35.5  g2                    36 SeuratProject
##  2 CD79B     g2       52.8  g2                    36 SeuratProject
##  3 CD79A     g2       37.2  g2                    36 SeuratProject
##  4 HLA-DRA   g2      130.   g2                    36 SeuratProject
##  5 TCL1A     g2       29.5  g2                    36 SeuratProject
##  6 HLA-DQB1  g2       65.5  g2                    36 SeuratProject
##  7 HVCN1     g2       29.8  g2                    36 SeuratProject
##  8 HLA-DMB   g2       43.2  g2                    36 SeuratProject
##  9 LTB       g2      111.   g2                    36 SeuratProject
## 10 LINC00926 g2        9.91 g2                    36 SeuratProject
## # ℹ 450 more rows
…
